DV(1-3) HW
…
WARNING: The 'r-causact' Conda environment does not exist. To use the 'dag_numpyro()' function, you need to set up the 'r-causact' environment. Run install_causact_deps() when ready to set up the 'r-causact' environment.

Attaching package: 'causact'

The following objects are masked from 'package:stats':

    binomial, poisson

The following objects are masked from 'package:base':

    beta, gamma

(corruptDF)

# A tibble: 174 × 7
   country     region          countryCode regionCode population CPI2017 HDI2017
   <chr>       <chr>           <chr>       <chr>           <int>   <int>   <dbl>
 1 Afghanistan Asia Pacific    AFG         AP           35530081      15   0.498
 2 Albania     East EU Cemt A… ALB         ECA           2873457      38   0.785
 3 Algeria     MENA            DZA         MENA         41318142      33   0.754
 4 Angola      SSA             AGO         SSA          29784193      19   0.581
 5 Argentina   Americas        ARG         AME          44271041      39   0.825
 6 Armenia     East EU Cemt A… ARM         ECA           2930450      35   0.755
 7 Australia   Asia Pacific    AUS         AP           24598933      77   0.939
 8 Austria     EU W. Europe    AUT         WE/EU         8809212      75   0.908
 9 Azerbaijan  East EU Cemt A… AZE         ECA           9862429      31   0.757
10 Bahamas     Americas        BHS         AME            395361      65   0.807
# ℹ 164 more rows
…
